Protective Asset Allocation:
…
# Protective Momentum 
- moving all capital to “cash” like safe treasury bonds when global markets becomes more bearish
### Low protection strategy (PAA0), a=0
### Median protection strategy (PAA1), a=1
### High protection strategy (PAA2), a=2

???
In addition, we will use a protection by moving all capital to “cash” like safe treasury bonds when global markets becomes more bearish, which is called Protective Momentum. Therefore, we will combine protective momentum with simple momentum, based on SMA, to arrive at the PAA strategy. We will distinguish between low, medium and high protection strategies, depending on the chosen protection rate.
---
class: inverse
## 12 Assets in the universe N=12

```
## # A tibble: 48 x 13
##    Date       BEPTF  DXCM    FB  FIVN  FSLR   FTV  NFLX  OSTK   RUN  SONY  SWKS
##    <date>     <dbl> <dbl> <dbl> <dbl> <dbl> <dbl> <dbl> <dbl> <dbl> <dbl> <dbl>
##  1 2017-05-01 0.464  66.8  151.  22.5  38.5  51.4  163.  14.0  5.04  36.6  99.7
##  2 2017-06-01 0.421  73.2  151.  21.5  39.9  52.2  149.  16.3  7.12  38.2  90.1
##  3 2017-07-01 0.516  66.6  169.  22.1  49.3  53.3  182.  16    7.53  41.1  98.5
##  4 2017-08-01 0.503  74.6  172.  21.5  47.0  53.5  175.  22.0  6.7   39.6  99.0
##  5 2017-09-01 0.605  48.9  171.  23.9  45.9  58.4  181.  29.7  5.55  37.3  96.0
##  6 2017-10-01 0.719  45.0  180.  25.2  54.8  59.6  196.  45.9  5.74  43.4 107. 
##  7 2017-11-01 0.766  58.4  177.  24.5  62.1  61.6  188.  47.1  5.6   46.8  98.7
##  8 2017-12-01 0.941  57.4  176.  24.9  67.5  59.7  192.  63.9  5.9   45.0  89.7
##  9 2018-01-01 1.02   58.2  187.  26.0  67.2  62.8  270.  68.7  6.33  47.9  91.9
## 10 2018-02-01 1.03   56.1  178.  30.4  62.8  63.4  291.  60.4  6.69  50.5 103. 
## # … with 38 more rows, and 1 more variable: TXRH <dbl>
```
…
